uart.vcd
$date
Thu Aug 24 02:50:17 2023
$end
$version
Riviera-PRO Version 2022.04.117.8517
$end
$timescale
1 ns
$end

$scope module uart_testbench $end
$var wire 1 ! tx $end
$var wire 1 " donetx $end
$var wire 1 # donerx $end
$var wire 8 $ doutrx [7:0] $end
$var reg 1 % clk $end
$var reg 1 & rst $end
$var reg 1 ' send $end
$var reg 1 ( rx $end
$var reg 8 ) tx_data [7:0] $end

$scope module uut $end
$var wire 1 * clk $end
$var wire 1 + rst $end
$var wire 1 , rx $end
$var wire 8 - dintx [7:0] $end
$var wire 1 . send $end
$var wire 1 ! tx $end
$var wire 8 $ doutrx [7:0] $end
$var wire 1 " donetx $end
$var wire 1 # donerx $end
$var parameter 32 / clk_freq [31:0] $end
$var parameter 32 0 baud_rate [31:0] $end

$scope module utx $end
$var wire 1 * clk $end
$var wire 1 + rst $end
$var wire 1 . send $end
$var wire 8 - tx_data [7:0] $end
$var reg 1 1 tx $end
$var reg 1 2 donetx $end
$var integer 32 3 count $end
$var integer 32 4 counts $end
$var reg 2 5 state $end
$var reg 1 6 uclk $end
$var reg 8 7 din [7:0] $end
$var parameter 32 8 clk_freq [31:0] $end
$var parameter 32 9 baud_rate [31:0] $end
$var parameter 32 : clkcount [31:0] $end
$upscope $end


$scope module rtx $end
$var wire 1 * clk $end
$var wire 1 + rst $end
$var wire 1 , rx $end
$var reg 1 ; done $end
$var reg 8 < rxdata [7:0] $end
$var integer 32 = count $end
$var integer 32 > counts $end
$var reg 2 ? state $end
$var reg 1 @ uclk $end
$var parameter 32 A clk_freq [31:0] $end
$var parameter 32 B baud_rate [31:0] $end
$var parameter 32 C clkcount [31:0] $end
$upscope $end

$upscope $end

$upscope $end

$enddefinitions $end
$dumpvars
x!
x"
x#
bx $
0%
1&
0'
x(
b10101010 )
0*
1+
x,
b10101010 -
0.
b11110100001001000000 /
b10010110000000 0
x1
x2
b0 3
b0 4
b0 5
06
bx 7
b11110100001001000000 8
b10010110000000 9
b1101000 :
x;
bx <
b0 =
b0 >
b0 ?
0@
b11110100001001000000 A
b10010110000000 B
b1101000 C
$end
#5
1%
1*
b1 3
b1 =
#10
0&
0%
0*
0+
#15
1%
1*
b10 3
b10 =
#20
0%
0*
#25
1'
1%
1*
1.
b11 3
b11 =
#30
0%
0*
#35
1%
1*
b100 3
b100 =
#40
0%
0*
#45
1%
1*
b101 3
b101 =
#50
0%
0*
#55
1%
1*
b110 3
b110 =
#60
0%
0*
#65
1%
1*
b111 3
b111 =
#70
0%
0*
#75
1%
1*
b1000 3
b1000 =
#80
0%
0*
#85
1%
1*
b1001 3
b1001 =
#90
0%
0*
#95
1%
1*
b1010 3
b1010 =
#100
0%
0*
#105
1%
1*
b1011 3
b1011 =
#110
0%
0*
#115
1%
1*
b1100 3
b1100 =
#120
0%
0*
#125
1%
1*
b1101 3
b1101 =
#130
0%
0*
#135
1%
1*
b1110 3
b1110 =
#140
0%
0*
#145
1%
1*
b1111 3
b1111 =
#150
0%
0*
#155
1%
1*
b10000 3
b10000 =
#160
0%
0*
#165
1%
1*
b10001 3
b10001 =
#170
0%
0*
#175
1%
1*
b10010 3
b10010 =
#180
0%
0*
#185
1%
1*
b10011 3
b10011 =
#190
0%
0*
#195
1%
1*
b10100 3
b10100 =
#200
0%
0*
#205
1%
1*
b10101 3
b10101 =
#210
0%
0*
#215
1%
1*
b10110 3
b10110 =
#220
0%
0*
#225
1%
1*
b10111 3
b10111 =
#230
0%
0*
#235
1%
1*
b11000 3
b11000 =
#240
0%
0*
#245
1%
1*
b11001 3
b11001 =
#250
0%
0*
#255
1%
1*
b11010 3
b11010 =
#260
0%
0*
#265
1%
1*
b11011 3
b11011 =
#270
0%
0*
#275
1%
1*
b11100 3
b11100 =
#280
0%
0*
#285
1%
1*
b11101 3
b11101 =
#290
0%
0*
#295
1%
1*
b11110 3
b11110 =
#300
0%
0*
#305
1%
1*
b11111 3
b11111 =
#310
0%
0*
#315
1%
1*
b100000 3
b100000 =
#320
0%
0*
#325
1%
1*
b100001 3
b100001 =
#330
0%
0*
#335
1%
1*
b100010 3
b100010 =
#340
0%
0*
#345
1%
1*
b100011 3
b100011 =
#350
0%
0*
#355
1%
1*
b100100 3
b100100 =
#360
0%
0*
#365
1%
1*
b100101 3
b100101 =
#370
0%
0*
#375
1%
1*
b100110 3
b100110 =
#380
0%
0*
#385
1%
1*
b100111 3
b100111 =
#390
0%
0*
#395
1%
1*
b101000 3
b101000 =
#400
0%
0*
#405
1%
1*
b101001 3
b101001 =
#410
0%
0*
#415
1%
1*
b101010 3
b101010 =
#420
0%
0*
#425
1%
1*
b101011 3
b101011 =
#430
0%
0*
#435
1%
1*
b101100 3
b101100 =
#440
0%
0*
#445
1%
1*
b101101 3
b101101 =
#450
0%
0*
#455
1%
1*
b101110 3
b101110 =
#460
0%
0*
#465
1%
1*
b101111 3
b101111 =
#470
0%
0*
#475
1%
1*
b110000 3
b110000 =
#480
0%
0*
#485
1%
1*
b110001 3
b110001 =
#490
0%
0*
#495
1%
1*
b110010 3
b110010 =
#500
0%
0*
#505
1%
1*
b110011 3
b110011 =
#510
0%
0*
#515
1%
1*
b110100 3
b110100 =
#520
0%
0*
#525
1%
1*
16
1@
02
01
0!
0"
b0 3
b0 =
11
b10 5
b10101010 7
b0 <
0;
0#
b0 $
1!
#530
0%
0*
#535
1%
1*
b1 3
b1 =
#540
0%
0*
#545
1%
1*
b10 3
b10 =
#550
0%
0*
#555
1%
1*
b11 3
b11 =
#560
0%
0*
#565
1%
1*
b100 3
b100 =
#570
0%
0*
#575
1%
1*
b101 3
b101 =
#580
0%
0*
#585
1%
1*
b110 3
b110 =
#590
0%
0*
#595
1%
1*
b111 3
b111 =
#600
0%
0*
#605
1%
1*
b1000 3
b1000 =
#610
0%
0*
#615
1%
1*
b1001 3
b1001 =
#620
0%
0*
#625
0'
1%
1*
0.
b1010 3
b1010 =
#630
0%
0*
#635
1%
1*
b1011 3
b1011 =
#640
0%
0*
#645
1%
1*
b1100 3
b1100 =
#650
0%
0*
#655
1%
1*
b1101 3
b1101 =
#660
0%
0*
#665
1%
1*
b1110 3
b1110 =
#670
0%
0*
#675
1%
1*
b1111 3
b1111 =
#680
0%
0*
#685
1%
1*
b10000 3
b10000 =
#690
0%
0*
#695
1%
1*
b10001 3
b10001 =
#700
0%
0*
#705
1%
1*
b10010 3
b10010 =
#710
0%
0*
#715
1%
1*
b10011 3
b10011 =
#720
0%
0*
#725
1%
1*
b10100 3
b10100 =
#730
0%
0*
#735
1%
1*
b10101 3
b10101 =
#740
0%
0*
#745
1%
1*
b10110 3
b10110 =
#750
0%
0*
#755
1%
1*
b10111 3
b10111 =
#760
0%
0*
#765
1%
1*
b11000 3
b11000 =
#770
0%
0*
#775
1%
1*
b11001 3
b11001 =
#780
0%
0*
#785
1%
1*
b11010 3
b11010 =
#790
0%
0*
#795
1%
1*
b11011 3
b11011 =
#800
0%
0*
#805
1%
1*
b11100 3
b11100 =
#810
0%
0*
#815
1%
1*
b11101 3
b11101 =
#820
0%
0*
#825
1%
1*
b11110 3
b11110 =
#830
0%
0*
#835
1%
1*
b11111 3
b11111 =
#840
0%
0*
#845
1%
1*
b100000 3
b100000 =
#850
0%
0*
#855
1%
1*
b100001 3
b100001 =
#860
0%
0*
#865
1%
1*
b100010 3
b100010 =
#870
0%
0*
#875
1%
1*
b100011 3
b100011 =
#880
0%
0*
#885
1%
1*
b100100 3
b100100 =
#890
0%
0*
#895
1%
1*
b100101 3
b100101 =
#900
0%
0*
#905
1%
1*
b100110 3
b100110 =
#910
0%
0*
#915
1%
1*
b100111 3
b100111 =
#920
0%
0*
#925
1%
1*
b101000 3
b101000 =
#930
0%
0*
#935
1%
1*
b101001 3
b101001 =
#940
0%
0*
#945
1%
1*
b101010 3
b101010 =
#950
0%
0*
#955
1%
1*
b101011 3
b101011 =
#960
0%
0*
#965
1%
1*
b101100 3
b101100 =
#970
0%
0*
#975
1%
1*
b101101 3
b101101 =
#980
0%
0*
#985
1%
1*
b101110 3
b101110 =
#990
0%
0*
#995
1%
1*
b101111 3
b101111 =
#1000
0%
0*
#1005
1%
1*
b110000 3
b110000 =
#1010
0%
0*
#1015
1%
1*
b110001 3
b110001 =
#1020
0%
0*
#1025
1%
1*
b110010 3
b110010 =
#1030
0%
0*
#1035
1%
1*
b110011 3
b110011 =
#1040
0%
0*
#1045
1%
1*
b110100 3
b110100 =
#1050
0%
0*
#1055
1%
1*
06
0@
b0 3
b0 =
#1060
0%
0*
#1065
1%
1*
b1 3
b1 =
#1070
0%
0*
#1075
1%
1*
b10 3
b10 =
#1080
0%
0*
#1085
1%
1*
b11 3
b11 =
#1090
0%
0*
#1095
1%
1*
b100 3
b100 =
#1100
0%
0*
#1105
1%
1*
b101 3
b101 =
#1110
0%
0*
#1115
1%
1*
b110 3
b110 =
#1120
0%
0*
#1125
1%
1*
b111 3
b111 =
#1130
0%
0*
#1135
1%
1*
b1000 3
b1000 =
#1140
0%
0*
#1145
1%
1*
b1001 3
b1001 =
#1150
0%
0*
#1155
1%
1*
b1010 3
b1010 =
#1160
0%
0*
#1165
1%
1*
b1011 3
b1011 =
#1170
0%
0*
#1175
1%
1*
b1100 3
b1100 =
#1180
0%
0*
#1185
1%
1*
b1101 3
b1101 =
#1190
0%
0*
#1195
1%
1*
b1110 3
b1110 =
#1200
0%
0*
#1205
1%
1*
b1111 3
b1111 =
#1210
0%
0*
#1215
1%
1*
b10000 3
b10000 =
#1220
0%
0*
#1225
1%
1*
b10001 3
b10001 =
#1230
0%
0*
#1235
1%
1*
b10010 3
b10010 =
#1240
0%
0*
#1245
1%
1*
b10011 3
b10011 =
#1250
0%
0*
#1255
1%
1*
b10100 3
b10100 =
#1260
0%
0*
#1265
1%
1*
b10101 3
b10101 =
#1270
0%
0*
#1275
1%
1*
b10110 3
b10110 =
#1280
0%
0*
#1285
1%
1*
b10111 3
b10111 =
#1290
0%
0*
#1295
1%
1*
b11000 3
b11000 =
#1300
0%
0*
#1305
1%
1*
b11001 3
b11001 =
#1310
0%
0*
#1315
1%
1*
b11010 3
b11010 =
#1320
0%
0*
#1325
1%
1*
b11011 3
b11011 =
#1330
0%
0*
#1335
1%
1*
b11100 3
b11100 =
#1340
0%
0*
#1345
1%
1*
b11101 3
b11101 =
#1350
0%
0*
#1355
1%
1*
b11110 3
b11110 =
#1360
0%
0*
#1365
1%
1*
b11111 3
b11111 =
#1370
0%
0*
#1375
1%
1*
b100000 3
b100000 =
#1380
0%
0*
#1385
1%
1*
b100001 3
b100001 =
#1390
0%
0*
#1395
1%
1*
b100010 3
b100010 =
#1400
0%
0*
#1405
1%
1*
b100011 3
b100011 =
#1410
0%
0*
#1415
1%
1*
b100100 3
b100100 =
#1420
0%
0*
#1425
1%
1*
b100101 3
b100101 =
#1430
0%
0*
#1435
1%
1*
b100110 3
b100110 =
#1440
0%
0*
#1445
1%
1*
b100111 3
b100111 =
#1450
0%
0*
#1455
1%
1*
b101000 3
b101000 =
#1460
0%
0*
#1465
1%
1*
b101001 3
b101001 =
#1470
0%
0*
#1475
1%
1*
b101010 3
b101010 =
#1480
0%
0*
#1485
1%
1*
b101011 3
b101011 =
#1490
0%
0*
#1495
1%
1*
b101100 3
b101100 =
#1500
0%
0*
#1505
1%
1*
b101101 3
b101101 =
#1510
0%
0*
#1515
1%
1*
b101110 3
b101110 =
#1520
0%
0*
#1525
1%
1*
b101111 3
b101111 =
#1530
0%
0*
#1535
1%
1*
b110000 3
b110000 =
#1540
0%
0*
#1545
1%
1*
b110001 3
b110001 =
#1550
0%
0*
#1555
1%
1*
b110010 3
b110010 =
#1560
0%
0*
#1565
1%
1*
b110011 3
b110011 =
#1570
0%
0*
#1575
1%
1*
b110100 3
b110100 =
#1580
0%
0*
#1585
1%
1*
16
1@
b0 3
b0 =
b1 4
01
0!
#1590
0%
0*
#1595
1%
1*
b1 3
b1 =
#1600
0%
0*
#1605
1%
1*
b10 3
b10 =
#1610
0%
0*
#1615
1%
1*
b11 3
b11 =
#1620
0%
0*
#1625
1%
1*
b100 3
b100 =
#1630
0%
0*
#1635
1%
1*
b101 3
b101 =
#1640
0%
0*
#1645
1%
1*
b110 3
b110 =
#1650
0%
0*
#1655
1%
1*
b111 3
b111 =
#1660
0%
0*
#1665
1%
1*
b1000 3
b1000 =
#1670
0%
0*
#1675
1%
1*
b1001 3
b1001 =
#1680
0%
0*
#1685
1%
1*
b1010 3
b1010 =
#1690
0%
0*
#1695
1%
1*
b1011 3
b1011 =
#1700
0%
0*
#1705
1%
1*
b1100 3
b1100 =
#1710
0%
0*
#1715
1%
1*
b1101 3
b1101 =
#1720
0%
0*
#1725
1%
1*
b1110 3
b1110 =
#1730
0%
0*
#1735
1%
1*
b1111 3
b1111 =
#1740
0%
0*
#1745
1%
1*
b10000 3
b10000 =
#1750
0%
0*
#1755
1%
1*
b10001 3
b10001 =
#1760
0%
0*
#1765
1%
1*
b10010 3
b10010 =
#1770
0%
0*
#1775
1%
1*
b10011 3
b10011 =
#1780
0%
0*
#1785
1%
1*
b10100 3
b10100 =
#1790
0%
0*
#1795
1%
1*
b10101 3
b10101 =
#1800
0%
0*
#1805
1%
1*
b10110 3
b10110 =
#1810
0%
0*
#1815
1%
1*
b10111 3
b10111 =
#1820
0%
0*
#1825
1%
1*
b11000 3
b11000 =
#1830
0%
0*
#1835
1%
1*
b11001 3
b11001 =
#1840
0%
0*
#1845
1%
1*
b11010 3
b11010 =
#1850
0%
0*
#1855
1%
1*
b11011 3
b11011 =
#1860
0%
0*
#1865
1%
1*
b11100 3
b11100 =
#1870
0%
0*
#1875
1%
1*
b11101 3
b11101 =
#1880
0%
0*
#1885
1%
1*
b11110 3
b11110 =
#1890
0%
0*
#1895
1%
1*
b11111 3
b11111 =
#1900
0%
0*
#1905
1%
1*
b100000 3
b100000 =
#1910
0%
0*
#1915
1%
1*
b100001 3
b100001 =
#1920
0%
0*
#1925
1%
1*
b100010 3
b100010 =
#1930
0%
0*
#1935
1%
1*
b100011 3
b100011 =
#1940
0%
0*
#1945
1%
1*
b100100 3
b100100 =
#1950
0%
0*
#1955
1%
1*
b100101 3
b100101 =
#1960
0%
0*
#1965
1%
1*
b100110 3
b100110 =
#1970
0%
0*
#1975
1%
1*
b100111 3
b100111 =
#1980
0%
0*
#1985
1%
1*
b101000 3
b101000 =
#1990
0%
0*
#1995
1%
1*
b101001 3
b101001 =
#2000
0%
0*
#2005
1%
1*
b101010 3
b101010 =
#2010
0%
0*
#2015
1%
1*
b101011 3
b101011 =
#2020
0%
0*
#2025
1%
1*
b101100 3
b101100 =
#2030
0%
0*
#2035
1%
1*
b101101 3
b101101 =
#2040
0%
0*
#2045
1%
1*
b101110 3
b101110 =
#2050
0%
0*
#2055
1%
1*
b101111 3
b101111 =
#2060
0%
0*
#2065
1%
1*
b110000 3
b110000 =
#2070
0%
0*
#2075
1%
1*
b110001 3
b110001 =
#2080
0%
0*
#2085
1%
1*
b110010 3
b110010 =
#2090
0%
0*
#2095
1%
1*
b110011 3
b110011 =
#2100
0%
0*
#2105
1%
1*
b110100 3
b110100 =
#2110
0%
0*
#2115
1%
1*
06
0@
b0 3
b0 =
#2120
0%
0*
#2125
1%
1*
b1 3
b1 =
#2130
0%
0*
#2135
1%
1*
b10 3
b10 =
#2140
0%
0*
#2145
1%
1*
b11 3
b11 =
#2150
0%
0*
#2155
1%
1*
b100 3
b100 =
#2160
0%
0*
#2165
1%
1*
b101 3
b101 =
#2170
0%
0*
#2175
1%
1*
b110 3
b110 =
#2180
0%
0*
#2185
1%
1*
b111 3
b111 =
#2190
0%
0*
#2195
1%
1*
b1000 3
b1000 =
#2200
0%
0*
#2205
1%
1*
b1001 3
b1001 =
#2210
0%
0*
#2215
1%
1*
b1010 3
b1010 =
#2220
0%
0*
#2225
1%
1*
b1011 3
b1011 =
#2230
0%
0*
#2235
1%
1*
b1100 3
b1100 =
#2240
0%
0*
#2245
1%
1*
b1101 3
b1101 =
#2250
0%
0*
#2255
1%
1*
b1110 3
b1110 =
#2260
0%
0*
#2265
1%
1*
b1111 3
b1111 =
#2270
0%
0*
#2275
1%
1*
b10000 3
b10000 =
#2280
0%
0*
#2285
1%
1*
b10001 3
b10001 =
#2290
0%
0*
#2295
1%
1*
b10010 3
b10010 =
#2300
0%
0*
#2305
1%
1*
b10011 3
b10011 =
#2310
0%
0*
#2315
1%
1*
b10100 3
b10100 =
#2320
0%
0*
#2325
1%
1*
b10101 3
b10101 =
#2330
0%
0*
#2335
1%
1*
b10110 3
b10110 =
#2340
0%
0*
#2345
1%
1*
b10111 3
b10111 =
#2350
0%
0*
#2355
1%
1*
b11000 3
b11000 =
#2360
0%
0*
#2365
1%
1*
b11001 3
b11001 =
#2370
0%
0*
#2375
1%
1*
b11010 3
b11010 =
#2380
0%
0*
#2385
1%
1*
b11011 3
b11011 =
#2390
0%
0*
#2395
1%
1*
b11100 3
b11100 =
#2400
0%
0*
#2405
1%
1*
b11101 3
b11101 =
#2410
0%
0*
#2415
1%
1*
b11110 3
b11110 =
#2420
0%
0*
#2425
1%
1*
b11111 3
b11111 =
#2430
0%
0*
#2435
1%
1*
b100000 3
b100000 =
#2440
0%
0*
#2445
1%
1*
b100001 3
b100001 =
#2450
0%
0*
#2455
1%
1*
b100010 3
b100010 =
#2460
0%
0*
#2465
1%
1*
b100011 3
b100011 =
#2470
0%
0*
#2475
1%
1*
b100100 3
b100100 =
#2480
0%
0*
#2485
1%
1*
b100101 3
b100101 =
#2490
0%
0*
#2495
1%
1*
b100110 3
b100110 =
#2500
0%
0*
#2505
1%
1*
b100111 3
b100111 =
#2510
0%
0*
#2515
1%
1*
b101000 3
b101000 =
#2520
0%
0*
#2525
1%
1*
b101001 3
b101001 =
#2530
0%
0*
#2535
1%
1*
b101010 3
b101010 =
#2540
0%
0*
#2545
1%
1*
b101011 3
b101011 =
#2550
0%
0*
#2555
1%
1*
b101100 3
b101100 =
#2560
0%
0*
#2565
1%
1*
b101101 3
b101101 =
#2570
0%
0*
#2575
1%
1*
b101110 3
b101110 =
#2580
0%
0*
#2585
1%
1*
b101111 3
b101111 =
#2590
0%
0*
#2595
1%
1*
b110000 3
b110000 =
#2600
0%
0*
#2605
1%
1*
b110001 3
b110001 =
#2610
0%
0*
#2615
1%
1*
b110010 3
b110010 =
#2620
0%
0*
#2625
1%
1*
b110011 3
b110011 =
#2630
0%
0*
#2635
1%
1*
b110100 3
b110100 =
#2640
0%
0*
#2645
1%
1*
16
1@
b0 3
b0 =
b10 4
11
1!
#2650
0%
0*
#2655
1%
1*
b1 3
b1 =
#2660
0%
0*
#2665
1%
1*
b10 3
b10 =
#2670
0%
0*
#2675
1%
1*
b11 3
b11 =
#2680
0%
0*
#2685
1%
1*
b100 3
b100 =
#2690
0%
0*
#2695
1%
1*
b101 3
b101 =
#2700
0%
0*
#2705
1%
1*
b110 3
b110 =
#2710
0%
0*
#2715
1%
1*
b111 3
b111 =
#2720
0%
0*
#2725
1%
1*
b1000 3
b1000 =
#2730
0%
0*
#2735
1%
1*
b1001 3
b1001 =
#2740
0%
0*
#2745
1%
1*
b1010 3
b1010 =
#2750
0%
0*
#2755
1%
1*
b1011 3
b1011 =
#2760
0%
0*
#2765
1%
1*
b1100 3
b1100 =
#2770
0%
0*
#2775
1%
1*
b1101 3
b1101 =
#2780
0%
0*
#2785
1%
1*
b1110 3
b1110 =
#2790
0%
0*
#2795
1%
1*
b1111 3
b1111 =
#2800
0%
0*
#2805
1%
1*
b10000 3
b10000 =
#2810
0%
0*
#2815
1%
1*
b10001 3
b10001 =
#2820
0%
0*
#2825
1%
1*
b10010 3
b10010 =
#2830
0%
0*
#2835
1%
1*
b10011 3
b10011 =
#2840
0%
0*
#2845
1%
1*
b10100 3
b10100 =
#2850
0%
0*
#2855
1%
1*
b10101 3
b10101 =
#2860
0%
0*
#2865
1%
1*
b10110 3
b10110 =
#2870
0%
0*
#2875
1%
1*
b10111 3
b10111 =
#2880
0%
0*
#2885
1%
1*
b11000 3
b11000 =
#2890
0%
0*
#2895
1%
1*
b11001 3
b11001 =
#2900
0%
0*
#2905
1%
1*
b11010 3
b11010 =
#2910
0%
0*
#2915
1%
1*
b11011 3
b11011 =
#2920
0%
0*
#2925
1%
1*
b11100 3
b11100 =
#2930
0%
0*
#2935
1%
1*
b11101 3
b11101 =
#2940
0%
0*
#2945
1%
1*
b11110 3
b11110 =
#2950
0%
0*
#2955
1%
1*
b11111 3
b11111 =
#2960
0%
0*
#2965
1%
1*
b100000 3
b100000 =
#2970
0%
0*
#2975
1%
1*
b100001 3
b100001 =
#2980
0%
0*
#2985
1%
1*
b100010 3
b100010 =
#2990
0%
0*
#2995
1%
1*
b100011 3
b100011 =
#3000
0%
0*
#3005
1%
1*
b100100 3
b100100 =
#3010
0%
0*
#3015
1%
1*
b100101 3
b100101 =
#3020
0%
0*
#3025
1%
1*
b100110 3
b100110 =
#3030
0%
0*
#3035
1%
1*
b100111 3
b100111 =
#3040
0%
0*
#3045
1%
1*
b101000 3
b101000 =
#3050
0%
0*
#3055
1%
1*
b101001 3
b101001 =
#3060
0%
0*
#3065
1%
1*
b101010 3
b101010 =
#3070
0%
0*
#3075
1%
1*
b101011 3
b101011 =
#3080
0%
0*
#3085
1%
1*
b101100 3
b101100 =
#3090
0%
0*
#3095
1%
1*
b101101 3
b101101 =
#3100
0%
0*
#3105
1%
1*
b101110 3
b101110 =
#3110
0%
0*
#3115
1%
1*
b101111 3
b101111 =
#3120
0%
0*
#3125
1%
1*
b110000 3
b110000 =
#3130
0%
0*
#3135
1%
1*
b110001 3
b110001 =
#3140
0%
0*
#3145
1%
1*
b110010 3
b110010 =
#3150
0%
0*
#3155
1%
1*
b110011 3
b110011 =
#3160
0%
0*
#3165
1%
1*
b110100 3
b110100 =
#3170
0%
0*
#3175
1%
1*
06
0@
b0 3
b0 =
#3180
0%
0*
#3185
1%
1*
b1 3
b1 =
#3190
0%
0*
#3195
1%
1*
b10 3
b10 =
#3200
0%
0*
#3205
1%
1*
b11 3
b11 =
#3210
0%
0*
#3215
1%
1*
b100 3
b100 =
#3220
0%
0*
#3225
1%
1*
b101 3
b101 =
#3230
0%
0*
#3235
1%
1*
b110 3
b110 =
#3240
0%
0*
#3245
1%
1*
b111 3
b111 =
#3250
0%
0*
#3255
1%
1*
b1000 3
b1000 =
#3260
0%
0*
#3265
1%
1*
b1001 3
b1001 =
#3270
0%
0*
#3275
1%
1*
b1010 3
b1010 =
#3280
0%
0*
#3285
1%
1*
b1011 3
b1011 =
#3290
0%
0*
#3295
1%
1*
b1100 3
b1100 =
#3300
0%
0*
#3305
1%
1*
b1101 3
b1101 =
#3310
0%
0*
#3315
1%
1*
b1110 3
b1110 =
#3320
0%
0*
#3325
1%
1*
b1111 3
b1111 =
#3330
0%
0*
#3335
1%
1*
b10000 3
b10000 =
#3340
0%
0*
#3345
1%
1*
b10001 3
b10001 =
#3350
0%
0*
#3355
1%
1*
b10010 3
b10010 =
#3360
0%
0*
#3365
1%
1*
b10011 3
b10011 =
#3370
0%
0*
#3375
1%
1*
b10100 3
b10100 =
#3380
0%
0*
#3385
1%
1*
b10101 3
b10101 =
#3390
0%
0*
#3395
1%
1*
b10110 3
b10110 =
#3400
0%
0*
#3405
1%
1*
b10111 3
b10111 =
#3410
0%
0*
#3415
1%
1*
b11000 3
b11000 =
#3420
0%
0*
#3425
1%
1*
b11001 3
b11001 =
#3430
0%
0*
#3435
1%
1*
b11010 3
b11010 =
#3440
0%
0*
#3445
1%
1*
b11011 3
b11011 =
#3450
0%
0*
#3455
1%
1*
b11100 3
b11100 =
#3460
0%
0*
#3465
1%
1*
b11101 3
b11101 =
#3470
0%
0*
#3475
1%
1*
b11110 3
b11110 =
#3480
0%
0*
#3485
1%
1*
b11111 3
b11111 =
#3490
0%
0*
#3495
1%
1*
b100000 3
b100000 =
#3500
0%
0*
#3505
1%
1*
b100001 3
b100001 =
#3510
0%
0*
#3515
1%
1*
b100010 3
b100010 =
#3520
0%
0*
#3525
1%
1*
b100011 3
b100011 =
#3530
0%
0*
#3535
1%
1*
b100100 3
b100100 =
#3540
0%
0*
#3545
1%
1*
b100101 3
b100101 =
#3550
0%
0*
#3555
1%
1*
b100110 3
b100110 =
#3560
0%
0*
#3565
1%
1*
b100111 3
b100111 =
#3570
0%
0*
#3575
1%
1*
b101000 3
b101000 =
#3580
0%
0*
#3585
1%
1*
b101001 3
b101001 =
#3590
0%
0*
#3595
1%
1*
b101010 3
b101010 =
#3600
0%
0*
#3605
1%
1*
b101011 3
b101011 =
#3610
0%
0*
#3615
1%
1*
b101100 3
b101100 =
#3620
0%
0*
#3625
1%
1*
b101101 3
b101101 =
#3630
0%
0*
#3635
1%
1*
b101110 3
b101110 =
#3640
0%
0*
#3645
1%
1*
b101111 3
b101111 =
#3650
0%
0*
#3655
1%
1*
b110000 3
b110000 =
#3660
0%
0*
#3665
1%
1*
b110001 3
b110001 =
#3670
0%
0*
#3675
1%
1*
b110010 3
b110010 =
#3680
0%
0*
#3685
1%
1*
b110011 3
b110011 =
#3690
0%
0*
#3695
1%
1*
b110100 3
b110100 =
#3700
0%
0*
#3705
1%
1*
16
1@
b0 3
b0 =
b11 4
01
0!
#3710
0%
0*
#3715
1%
1*
b1 3
b1 =
#3720
0%
0*
#3725
1%
1*
b10 3
b10 =
#3730
0%
0*
#3735
1%
1*
b11 3
b11 =
#3740
0%
0*
#3745
1%
1*
b100 3
b100 =
#3750
0%
0*
#3755
1%
1*
b101 3
b101 =
#3760
0%
0*
#3765
1%
1*
b110 3
b110 =
#3770
0%
0*
#3775
1%
1*
b111 3
b111 =
#3780
0%
0*
#3785
1%
1*
b1000 3
b1000 =
#3790
0%
0*
#3795
1%
1*
b1001 3
b1001 =
#3800
0%
0*
#3805
1%
1*
b1010 3
b1010 =
#3810
0%
0*
#3815
1%
1*
b1011 3
b1011 =
#3820
0%
0*
#3825
1%
1*
b1100 3
b1100 =
#3830
0%
0*
#3835
1%
1*
b1101 3
b1101 =
#3840
0%
0*
#3845
1%
1*
b1110 3
b1110 =
#3850
0%
0*
#3855
1%
1*
b1111 3
b1111 =
#3860
0%
0*
#3865
1%
1*
b10000 3
b10000 =
#3870
0%
0*
#3875
1%
1*
b10001 3
b10001 =
#3880
0%
0*
#3885
1%
1*
b10010 3
b10010 =
#3890
0%
0*
#3895
1%
1*
b10011 3
b10011 =
#3900
0%
0*
#3905
1%
1*
b10100 3
b10100 =
#3910
0%
0*
#3915
1%
1*
b10101 3
b10101 =
#3920
0%
0*
#3925
1%
1*
b10110 3
b10110 =
#3930
0%
0*
#3935
1%
1*
b10111 3
b10111 =
#3940
0%
0*
#3945
1%
1*
b11000 3
b11000 =
#3950
0%
0*
#3955
1%
1*
b11001 3
b11001 =
#3960
0%
0*
#3965
1%
1*
b11010 3
b11010 =
#3970
0%
0*
#3975
1%
1*
b11011 3
b11011 =
#3980
0%
0*
#3985
1%
1*
b11100 3
b11100 =
#3990
0%
0*
#3995
1%
1*
b11101 3
b11101 =
#4000
0%
0*
#4005
1%
1*
b11110 3
b11110 =
#4010
0%
0*
#4015
1%
1*
b11111 3
b11111 =
#4020
0%
0*
#4025
1%
1*
b100000 3
b100000 =
#4030
0%
0*
#4035
1%
1*
b100001 3
b100001 =
#4040
0%
0*
#4045
1%
1*
b100010 3
b100010 =
#4050
0%
0*
#4055
1%
1*
b100011 3
b100011 =
#4060
0%
0*
#4065
1%
1*
b100100 3
b100100 =
#4070
0%
0*
#4075
1%
1*
b100101 3
b100101 =
#4080
0%
0*
#4085
1%
1*
b100110 3
b100110 =
#4090
0%
0*
#4095
1%
1*
b100111 3
b100111 =
#4100
0%
0*
#4105
1%
1*
b101000 3
b101000 =
#4110
0%
0*
#4115
1%
1*
b101001 3
b101001 =
#4120
0%
0*
#4125
1%
1*
b101010 3
b101010 =
#4130
0%
0*
#4135
1%
1*
b101011 3
b101011 =
#4140
0%
0*
#4145
1%
1*
b101100 3
b101100 =
#4150
0%
0*
#4155
1%
1*
b101101 3
b101101 =
#4160
0%
0*
#4165
1%
1*
b101110 3
b101110 =
#4170
0%
0*
#4175
1%
1*
b101111 3
b101111 =
#4180
0%
0*
#4185
1%
1*
b110000 3
b110000 =
#4190
0%
0*
#4195
1%
1*
b110001 3
b110001 =
#4200
0%
0*
#4205
1%
1*
b110010 3
b110010 =
#4210
0%
0*
#4215
1%
1*
b110011 3
b110011 =
#4220
0%
0*
#4225
1%
1*
b110100 3
b110100 =
#4230
0%
0*
#4235
1%
1*
06
0@
b0 3
b0 =
#4240
0%
0*
#4245
1%
1*
b1 3
b1 =
#4250
0%
0*
#4255
1%
1*
b10 3
b10 =
#4260
0%
0*
#4265
1%
1*
b11 3
b11 =
#4270
0%
0*
#4275
1%
1*
b100 3
b100 =
#4280
0%
0*
#4285
1%
1*
b101 3
b101 =
#4290
0%
0*
#4295
1%
1*
b110 3
b110 =
#4300
0%
0*
#4305
1%
1*
b111 3
b111 =
#4310
0%
0*
#4315
1%
1*
b1000 3
b1000 =
#4320
0%
0*
#4325
1%
1*
b1001 3
b1001 =
#4330
0%
0*
#4335
1%
1*
b1010 3
b1010 =
#4340
0%
0*
#4345
1%
1*
b1011 3
b1011 =
#4350
0%
0*
#4355
1%
1*
b1100 3
b1100 =
#4360
0%
0*
#4365
1%
1*
b1101 3
b1101 =
#4370
0%
0*
#4375
1%
1*
b1110 3
b1110 =
#4380
0%
0*
#4385
1%
1*
b1111 3
b1111 =
#4390
0%
0*
#4395
1%
1*
b10000 3
b10000 =
#4400
0%
0*
#4405
1%
1*
b10001 3
b10001 =
#4410
0%
0*
#4415
1%
1*
b10010 3
b10010 =
